{
    "name": "App\\Director",
    "line": 9,
    "short_desc": "",
    "long_desc": "",
    "hint": null,
    "tags": [],
    "namespace": "App",
    "file": "C:\\laragon\\www\\cinemaProject\\CinemaAdminBackend\/app\\Director.php",
    "relative_file": null,
    "hash": "08694d5a50eb8ebcb6310217c06ea97175bbbb7b",
    "parent": "Illuminate\\Database\\Eloquent\\Model",
    "modifiers": 0,
    "is_trait": false,
    "is_interface": false,
    "aliases": {
        "Model": "Illuminate\\Database\\Eloquent\\Model",
        "Searchable": "Spatie\\Searchable\\Searchable",
        "SearchResult": "Spatie\\Searchable\\SearchResult"
    },
    "errors": [],
    "interfaces": {
        "Spatie\\Searchable\\Searchable": "Spatie\\Searchable\\Searchable"
    },
    "traits": [],
    "properties": {
        "fillable": {
            "name": "fillable",
            "line": 11,
            "short_desc": "",
            "long_desc": "",
            "hint": null,
            "hint_desc": null,
            "tags": [],
            "modifiers": 2,
            "default": {
                "nodeType": "Expr_Array",
                "items": [
                    {
                        "nodeType": "Expr_ArrayItem",
                        "key": null,
                        "value": {
                            "nodeType": "Scalar_String",
                            "value": "fullname",
                            "attributes": {
                                "startLine": 11,
                                "endLine": 11,
                                "kind": 1
                            }
                        },
                        "byRef": false,
                        "attributes": {
                            "startLine": 11,
                            "endLine": 11
                        }
                    },
                    {
                        "nodeType": "Expr_ArrayItem",
                        "key": null,
                        "value": {
                            "nodeType": "Scalar_String",
                            "value": "deleted",
                            "attributes": {
                                "startLine": 11,
                                "endLine": 11,
                                "kind": 1
                            }
                        },
                        "byRef": false,
                        "attributes": {
                            "startLine": 11,
                            "endLine": 11
                        }
                    }
                ],
                "attributes": {
                    "startLine": 11,
                    "endLine": 11,
                    "kind": 2
                }
            },
            "errors": []
        }
    },
    "methods": {
        "movies": {
            "name": "movies",
            "line": 13,
            "short_desc": "",
            "long_desc": "",
            "hint": null,
            "hint_desc": null,
            "tags": [],
            "modifiers": 1,
            "is_by_ref": "",
            "exceptions": [],
            "errors": [],
            "parameters": []
        },
        "getSearchResult": {
            "name": "getSearchResult",
            "line": 17,
            "short_desc": "",
            "long_desc": "",
            "hint": [
                [
                    "\\Spatie\\Searchable\\SearchResult",
                    false
                ]
            ],
            "hint_desc": null,
            "tags": [],
            "modifiers": 1,
            "is_by_ref": "",
            "exceptions": [],
            "errors": [],
            "parameters": []
        }
    },
    "constants": []
}