{
    "name": "App\\Http\\Controllers\\TicketController",
    "line": 10,
    "short_desc": "",
    "long_desc": "",
    "hint": null,
    "tags": [],
    "namespace": "App\\Http\\Controllers",
    "file": "C:\\laragon\\www\\cinemaProject\\CinemaAdminBackend\/app\\Http\\Controllers\\TicketController.php",
    "relative_file": null,
    "hash": "f1d6fc2810b5dce1b8a963955f8d7cfa6ef72a59",
    "parent": "App\\Http\\Controllers\\Controller",
    "modifiers": 0,
    "is_trait": false,
    "is_interface": false,
    "aliases": {
        "Ticket": "App\\Ticket",
        "MovieTime": "App\\MovieTime",
        "Movie": "App\\Movie",
        "Request": "Illuminate\\Http\\Request"
    },
    "errors": [],
    "interfaces": [],
    "traits": [],
    "properties": [],
    "methods": {
        "index": {
            "name": "index",
            "line": 17,
            "short_desc": "Display a listing of the resource.",
            "long_desc": "",
            "hint": [
                [
                    "\\Illuminate\\Http\\Response",
                    false
                ]
            ],
            "hint_desc": "",
            "tags": [],
            "modifiers": 1,
            "is_by_ref": "",
            "exceptions": [],
            "errors": [],
            "parameters": []
        },
        "create": {
            "name": "create",
            "line": 39,
            "short_desc": "Show the form for creating a new resource.",
            "long_desc": "",
            "hint": [
                [
                    "\\Illuminate\\Http\\Response",
                    false
                ]
            ],
            "hint_desc": "",
            "tags": [],
            "modifiers": 1,
            "is_by_ref": "",
            "exceptions": [],
            "errors": [],
            "parameters": {
                "id": {
                    "name": "id",
                    "line": 39,
                    "short_desc": null,
                    "long_desc": null,
                    "hint": null,
                    "tags": [],
                    "modifiers": null,
                    "default": null,
                    "variadic": false,
                    "is_by_ref": false
                }
            }
        },
        "store": {
            "name": "store",
            "line": 56,
            "short_desc": "Store a newly created resource in storage.",
            "long_desc": "",
            "hint": [
                [
                    "\\Illuminate\\Http\\Response",
                    false
                ]
            ],
            "hint_desc": "",
            "tags": [],
            "modifiers": 1,
            "is_by_ref": "",
            "exceptions": [],
            "errors": [],
            "parameters": {
                "request": {
                    "name": "request",
                    "line": 56,
                    "short_desc": "",
                    "long_desc": null,
                    "hint": [
                        [
                            "\\Illuminate\\Http\\Request",
                            false
                        ]
                    ],
                    "tags": [],
                    "modifiers": {
                        "nodeType": "Name_FullyQualified",
                        "parts": [
                            "Illuminate",
                            "Http",
                            "Request"
                        ],
                        "attributes": {
                            "startLine": 56,
                            "endLine": 56
                        }
                    },
                    "default": null,
                    "variadic": false,
                    "is_by_ref": false
                }
            }
        },
        "show": {
            "name": "show",
            "line": 73,
            "short_desc": "Display the specified resource.",
            "long_desc": "",
            "hint": [
                [
                    "\\Illuminate\\Http\\Response",
                    false
                ]
            ],
            "hint_desc": "",
            "tags": [],
            "modifiers": 1,
            "is_by_ref": "",
            "exceptions": [],
            "errors": [],
            "parameters": {
                "ticket": {
                    "name": "ticket",
                    "line": 73,
                    "short_desc": "",
                    "long_desc": null,
                    "hint": [
                        [
                            "\\App\\Ticket",
                            false
                        ]
                    ],
                    "tags": [],
                    "modifiers": {
                        "nodeType": "Name_FullyQualified",
                        "parts": [
                            "App",
                            "Ticket"
                        ],
                        "attributes": {
                            "startLine": 73,
                            "endLine": 73
                        }
                    },
                    "default": null,
                    "variadic": false,
                    "is_by_ref": false
                }
            }
        },
        "edit": {
            "name": "edit",
            "line": 84,
            "short_desc": "Show the form for editing the specified resource.",
            "long_desc": "",
            "hint": [
                [
                    "\\Illuminate\\Http\\Response",
                    false
                ]
            ],
            "hint_desc": "",
            "tags": [],
            "modifiers": 1,
            "is_by_ref": "",
            "exceptions": [],
            "errors": [],
            "parameters": {
                "ticket": {
                    "name": "ticket",
                    "line": 84,
                    "short_desc": "",
                    "long_desc": null,
                    "hint": [
                        [
                            "\\App\\Ticket",
                            false
                        ]
                    ],
                    "tags": [],
                    "modifiers": {
                        "nodeType": "Name_FullyQualified",
                        "parts": [
                            "App",
                            "Ticket"
                        ],
                        "attributes": {
                            "startLine": 84,
                            "endLine": 84
                        }
                    },
                    "default": null,
                    "variadic": false,
                    "is_by_ref": false
                }
            }
        },
        "update": {
            "name": "update",
            "line": 96,
            "short_desc": "Update the specified resource in storage.",
            "long_desc": "",
            "hint": [
                [
                    "\\Illuminate\\Http\\Response",
                    false
                ]
            ],
            "hint_desc": "",
            "tags": [],
            "modifiers": 1,
            "is_by_ref": "",
            "exceptions": [],
            "errors": [],
            "parameters": {
                "request": {
                    "name": "request",
                    "line": 96,
                    "short_desc": "",
                    "long_desc": null,
                    "hint": [
                        [
                            "\\Illuminate\\Http\\Request",
                            false
                        ]
                    ],
                    "tags": [],
                    "modifiers": {
                        "nodeType": "Name_FullyQualified",
                        "parts": [
                            "Illuminate",
                            "Http",
                            "Request"
                        ],
                        "attributes": {
                            "startLine": 96,
                            "endLine": 96
                        }
                    },
                    "default": null,
                    "variadic": false,
                    "is_by_ref": false
                },
                "ticket": {
                    "name": "ticket",
                    "line": 96,
                    "short_desc": "",
                    "long_desc": null,
                    "hint": [
                        [
                            "\\App\\Ticket",
                            false
                        ]
                    ],
                    "tags": [],
                    "modifiers": {
                        "nodeType": "Name_FullyQualified",
                        "parts": [
                            "App",
                            "Ticket"
                        ],
                        "attributes": {
                            "startLine": 96,
                            "endLine": 96
                        }
                    },
                    "default": null,
                    "variadic": false,
                    "is_by_ref": false
                }
            }
        },
        "destroy": {
            "name": "destroy",
            "line": 107,
            "short_desc": "Remove the specified resource from storage.",
            "long_desc": "",
            "hint": [
                [
                    "\\Illuminate\\Http\\Response",
                    false
                ]
            ],
            "hint_desc": "",
            "tags": [],
            "modifiers": 1,
            "is_by_ref": "",
            "exceptions": [],
            "errors": [],
            "parameters": {
                "ticket": {
                    "name": "ticket",
                    "line": 107,
                    "short_desc": "",
                    "long_desc": null,
                    "hint": [
                        [
                            "\\App\\Ticket",
                            false
                        ]
                    ],
                    "tags": [],
                    "modifiers": {
                        "nodeType": "Name_FullyQualified",
                        "parts": [
                            "App",
                            "Ticket"
                        ],
                        "attributes": {
                            "startLine": 107,
                            "endLine": 107
                        }
                    },
                    "default": null,
                    "variadic": false,
                    "is_by_ref": false
                }
            }
        }
    },
    "constants": []
}