{
    "name": "App\\Http\\Middleware\\RedirectIfAuthenticated",
    "line": 8,
    "short_desc": "",
    "long_desc": "",
    "hint": null,
    "tags": [],
    "namespace": "App\\Http\\Middleware",
    "file": "C:\\laragon\\www\\cinemaProject\\CinemaAdminBackend\/app\\Http\\Middleware\\RedirectIfAuthenticated.php",
    "relative_file": null,
    "hash": "99e1fc9d7e220277912272b3998b2410742308d7",
    "parent": null,
    "modifiers": 0,
    "is_trait": false,
    "is_interface": false,
    "aliases": {
        "Closure": "Closure",
        "Auth": "Illuminate\\Support\\Facades\\Auth"
    },
    "errors": [],
    "interfaces": [],
    "traits": [],
    "properties": [],
    "methods": {
        "handle": {
            "name": "handle",
            "line": 18,
            "short_desc": "Handle an incoming request.",
            "long_desc": "",
            "hint": [
                [
                    "mixed",
                    false
                ]
            ],
            "hint_desc": "",
            "tags": [],
            "modifiers": 1,
            "is_by_ref": "",
            "exceptions": [],
            "errors": [],
            "parameters": {
                "request": {
                    "name": "request",
                    "line": 18,
                    "short_desc": "",
                    "long_desc": null,
                    "hint": [
                        [
                            "\\Illuminate\\Http\\Request",
                            false
                        ]
                    ],
                    "tags": [],
                    "modifiers": null,
                    "default": null,
                    "variadic": false,
                    "is_by_ref": false
                },
                "next": {
                    "name": "next",
                    "line": 18,
                    "short_desc": "",
                    "long_desc": null,
                    "hint": [
                        [
                            "\\Closure",
                            false
                        ]
                    ],
                    "tags": [],
                    "modifiers": {
                        "nodeType": "Name_FullyQualified",
                        "parts": [
                            "Closure"
                        ],
                        "attributes": {
                            "startLine": 18,
                            "endLine": 18
                        }
                    },
                    "default": null,
                    "variadic": false,
                    "is_by_ref": false
                },
                "guard": {
                    "name": "guard",
                    "line": 18,
                    "short_desc": "",
                    "long_desc": null,
                    "hint": [
                        [
                            "string",
                            false
                        ],
                        [
                            "null",
                            false
                        ]
                    ],
                    "tags": [],
                    "modifiers": null,
                    "default": "null",
                    "variadic": false,
                    "is_by_ref": false
                }
            }
        }
    },
    "constants": []
}