{
    "name": "App\\Http\\Middleware\\VerifyCsrfToken",
    "line": 7,
    "short_desc": "",
    "long_desc": "",
    "hint": null,
    "tags": [],
    "namespace": "App\\Http\\Middleware",
    "file": "C:\\laragon\\www\\cinemaProject\\CinemaAdminBackend\/app\\Http\\Middleware\\VerifyCsrfToken.php",
    "relative_file": null,
    "hash": "70eb8af1992cda6f413a14ceb6495f1fbdec4936",
    "parent": "Illuminate\\Foundation\\Http\\Middleware\\VerifyCsrfToken",
    "modifiers": 0,
    "is_trait": false,
    "is_interface": false,
    "aliases": {
        "Middleware": "Illuminate\\Foundation\\Http\\Middleware\\VerifyCsrfToken"
    },
    "errors": [],
    "interfaces": [],
    "traits": [],
    "properties": {
        "addHttpCookie": {
            "name": "addHttpCookie",
            "line": 14,
            "short_desc": "Indicates whether the XSRF-TOKEN cookie should be set on the response.",
            "long_desc": "",
            "hint": [
                [
                    "bool",
                    false
                ]
            ],
            "hint_desc": "",
            "tags": [],
            "modifiers": 2,
            "default": {
                "nodeType": "Expr_ConstFetch",
                "name": {
                    "nodeType": "Name",
                    "parts": [
                        "true"
                    ],
                    "attributes": {
                        "startLine": 14,
                        "endLine": 14,
                        "namespacedName": {
                            "nodeType": "Name_FullyQualified",
                            "parts": [
                                "App",
                                "Http",
                                "Middleware",
                                "true"
                            ],
                            "attributes": {
                                "startLine": 14,
                                "endLine": 14
                            }
                        }
                    }
                },
                "attributes": {
                    "startLine": 14,
                    "endLine": 14
                }
            },
            "errors": []
        },
        "except": {
            "name": "except",
            "line": 21,
            "short_desc": "The URIs that should be excluded from CSRF verification.",
            "long_desc": "",
            "hint": [
                [
                    "array",
                    false
                ]
            ],
            "hint_desc": "",
            "tags": [],
            "modifiers": 2,
            "default": {
                "nodeType": "Expr_Array",
                "items": [],
                "attributes": {
                    "startLine": 21,
                    "endLine": 23,
                    "kind": 2
                }
            },
            "errors": []
        }
    },
    "methods": [],
    "constants": []
}