{
    "name": "App\\Movie",
    "line": 9,
    "short_desc": "",
    "long_desc": "",
    "hint": null,
    "tags": [],
    "namespace": "App",
    "file": "C:\\laragon\\www\\cinemaProject\\CinemaAdminBackend\/app\\Movie.php",
    "relative_file": null,
    "hash": "d8f1714383e6cc336a002cd0c80ab4912cb1b58a",
    "parent": "Illuminate\\Database\\Eloquent\\Model",
    "modifiers": 0,
    "is_trait": false,
    "is_interface": false,
    "aliases": {
        "Model": "Illuminate\\Database\\Eloquent\\Model",
        "Searchable": "Spatie\\Searchable\\Searchable",
        "SearchResult": "Spatie\\Searchable\\SearchResult"
    },
    "errors": [],
    "interfaces": {
        "Spatie\\Searchable\\Searchable": "Spatie\\Searchable\\Searchable"
    },
    "traits": [],
    "properties": {
        "fillable": {
            "name": "fillable",
            "line": 11,
            "short_desc": "",
            "long_desc": "",
            "hint": null,
            "hint_desc": null,
            "tags": [],
            "modifiers": 2,
            "default": {
                "nodeType": "Expr_Array",
                "items": [
                    {
                        "nodeType": "Expr_ArrayItem",
                        "key": null,
                        "value": {
                            "nodeType": "Scalar_String",
                            "value": "title",
                            "attributes": {
                                "startLine": 12,
                                "endLine": 12,
                                "kind": 1
                            }
                        },
                        "byRef": false,
                        "attributes": {
                            "startLine": 12,
                            "endLine": 12
                        }
                    },
                    {
                        "nodeType": "Expr_ArrayItem",
                        "key": null,
                        "value": {
                            "nodeType": "Scalar_String",
                            "value": "synopsis",
                            "attributes": {
                                "startLine": 13,
                                "endLine": 13,
                                "kind": 1
                            }
                        },
                        "byRef": false,
                        "attributes": {
                            "startLine": 13,
                            "endLine": 13
                        }
                    },
                    {
                        "nodeType": "Expr_ArrayItem",
                        "key": null,
                        "value": {
                            "nodeType": "Scalar_String",
                            "value": "poster",
                            "attributes": {
                                "startLine": 14,
                                "endLine": 14,
                                "kind": 1
                            }
                        },
                        "byRef": false,
                        "attributes": {
                            "startLine": 14,
                            "endLine": 14
                        }
                    },
                    {
                        "nodeType": "Expr_ArrayItem",
                        "key": null,
                        "value": {
                            "nodeType": "Scalar_String",
                            "value": "year",
                            "attributes": {
                                "startLine": 15,
                                "endLine": 15,
                                "kind": 1
                            }
                        },
                        "byRef": false,
                        "attributes": {
                            "startLine": 15,
                            "endLine": 15
                        }
                    },
                    {
                        "nodeType": "Expr_ArrayItem",
                        "key": null,
                        "value": {
                            "nodeType": "Scalar_String",
                            "value": "duration",
                            "attributes": {
                                "startLine": 16,
                                "endLine": 16,
                                "kind": 1
                            }
                        },
                        "byRef": false,
                        "attributes": {
                            "startLine": 16,
                            "endLine": 16
                        }
                    },
                    {
                        "nodeType": "Expr_ArrayItem",
                        "key": null,
                        "value": {
                            "nodeType": "Scalar_String",
                            "value": "active",
                            "attributes": {
                                "startLine": 17,
                                "endLine": 17,
                                "kind": 1
                            }
                        },
                        "byRef": false,
                        "attributes": {
                            "startLine": 17,
                            "endLine": 17
                        }
                    },
                    {
                        "nodeType": "Expr_ArrayItem",
                        "key": null,
                        "value": {
                            "nodeType": "Scalar_String",
                            "value": "has_movie_times",
                            "attributes": {
                                "startLine": 18,
                                "endLine": 18,
                                "kind": 1
                            }
                        },
                        "byRef": false,
                        "attributes": {
                            "startLine": 18,
                            "endLine": 18
                        }
                    },
                    {
                        "nodeType": "Expr_ArrayItem",
                        "key": null,
                        "value": {
                            "nodeType": "Scalar_String",
                            "value": "has_tickets",
                            "attributes": {
                                "startLine": 19,
                                "endLine": 19,
                                "kind": 1
                            }
                        },
                        "byRef": false,
                        "attributes": {
                            "startLine": 19,
                            "endLine": 19
                        }
                    },
                    {
                        "nodeType": "Expr_ArrayItem",
                        "key": null,
                        "value": {
                            "nodeType": "Scalar_String",
                            "value": "director_id",
                            "attributes": {
                                "startLine": 20,
                                "endLine": 20,
                                "kind": 1
                            }
                        },
                        "byRef": false,
                        "attributes": {
                            "startLine": 20,
                            "endLine": 20
                        }
                    },
                    {
                        "nodeType": "Expr_ArrayItem",
                        "key": null,
                        "value": {
                            "nodeType": "Scalar_String",
                            "value": "distributor_id",
                            "attributes": {
                                "startLine": 21,
                                "endLine": 21,
                                "kind": 1
                            }
                        },
                        "byRef": false,
                        "attributes": {
                            "startLine": 21,
                            "endLine": 21
                        }
                    },
                    {
                        "nodeType": "Expr_ArrayItem",
                        "key": null,
                        "value": {
                            "nodeType": "Scalar_String",
                            "value": "genre_id",
                            "attributes": {
                                "startLine": 22,
                                "endLine": 22,
                                "kind": 1
                            }
                        },
                        "byRef": false,
                        "attributes": {
                            "startLine": 22,
                            "endLine": 22
                        }
                    },
                    {
                        "nodeType": "Expr_ArrayItem",
                        "key": null,
                        "value": {
                            "nodeType": "Scalar_String",
                            "value": "rating_id",
                            "attributes": {
                                "startLine": 23,
                                "endLine": 23,
                                "kind": 1
                            }
                        },
                        "byRef": false,
                        "attributes": {
                            "startLine": 23,
                            "endLine": 23
                        }
                    }
                ],
                "attributes": {
                    "startLine": 11,
                    "endLine": 24,
                    "kind": 2
                }
            },
            "errors": []
        }
    },
    "methods": {
        "getSearchResult": {
            "name": "getSearchResult",
            "line": 26,
            "short_desc": "",
            "long_desc": "",
            "hint": [
                [
                    "\\Spatie\\Searchable\\SearchResult",
                    false
                ]
            ],
            "hint_desc": null,
            "tags": [],
            "modifiers": 1,
            "is_by_ref": "",
            "exceptions": [],
            "errors": [],
            "parameters": []
        },
        "director": {
            "name": "director",
            "line": 32,
            "short_desc": "",
            "long_desc": "",
            "hint": null,
            "hint_desc": null,
            "tags": [],
            "modifiers": 1,
            "is_by_ref": "",
            "exceptions": [],
            "errors": [],
            "parameters": []
        },
        "distributor": {
            "name": "distributor",
            "line": 36,
            "short_desc": "",
            "long_desc": "",
            "hint": null,
            "hint_desc": null,
            "tags": [],
            "modifiers": 1,
            "is_by_ref": "",
            "exceptions": [],
            "errors": [],
            "parameters": []
        },
        "genre": {
            "name": "genre",
            "line": 40,
            "short_desc": "",
            "long_desc": "",
            "hint": null,
            "hint_desc": null,
            "tags": [],
            "modifiers": 1,
            "is_by_ref": "",
            "exceptions": [],
            "errors": [],
            "parameters": []
        },
        "rating": {
            "name": "rating",
            "line": 44,
            "short_desc": "",
            "long_desc": "",
            "hint": null,
            "hint_desc": null,
            "tags": [],
            "modifiers": 1,
            "is_by_ref": "",
            "exceptions": [],
            "errors": [],
            "parameters": []
        },
        "movieTimes": {
            "name": "movieTimes",
            "line": 48,
            "short_desc": "",
            "long_desc": "",
            "hint": null,
            "hint_desc": null,
            "tags": [],
            "modifiers": 1,
            "is_by_ref": "",
            "exceptions": [],
            "errors": [],
            "parameters": []
        },
        "report": {
            "name": "report",
            "line": 52,
            "short_desc": "",
            "long_desc": "",
            "hint": null,
            "hint_desc": null,
            "tags": [],
            "modifiers": 1,
            "is_by_ref": "",
            "exceptions": [],
            "errors": [],
            "parameters": []
        }
    },
    "constants": []
}