{
    "name": "App\\Http\\Controllers\\Auth\\ResetPasswordController",
    "line": 8,
    "short_desc": "",
    "long_desc": "",
    "hint": null,
    "tags": [],
    "namespace": "App\\Http\\Controllers\\Auth",
    "file": "C:\\laragon\\www\\cinemaProject\\CinemaAdminBackend\/app\\Http\\Controllers\\Auth\\ResetPasswordController.php",
    "relative_file": null,
    "hash": "9fb50bb9ee19097182ba706641f54d853f4225f0",
    "parent": "App\\Http\\Controllers\\Controller",
    "modifiers": 0,
    "is_trait": false,
    "is_interface": false,
    "aliases": {
        "Controller": "App\\Http\\Controllers\\Controller",
        "ResetsPasswords": "Illuminate\\Foundation\\Auth\\ResetsPasswords"
    },
    "errors": [],
    "interfaces": [],
    "traits": {
        "Illuminate\\Foundation\\Auth\\ResetsPasswords": "Illuminate\\Foundation\\Auth\\ResetsPasswords"
    },
    "properties": {
        "redirectTo": {
            "name": "redirectTo",
            "line": 28,
            "short_desc": "Where to redirect users after resetting their password.",
            "long_desc": "",
            "hint": [
                [
                    "string",
                    false
                ]
            ],
            "hint_desc": "",
            "tags": [],
            "modifiers": 2,
            "default": {
                "nodeType": "Scalar_String",
                "value": "\/home",
                "attributes": {
                    "startLine": 28,
                    "endLine": 28,
                    "kind": 1
                }
            },
            "errors": []
        }
    },
    "methods": [],
    "constants": []
}