{
    "name": "App\\Http\\Kernel",
    "line": 7,
    "short_desc": "",
    "long_desc": "",
    "hint": null,
    "tags": [],
    "namespace": "App\\Http",
    "file": "C:\\laragon\\www\\cinemaProject\\CinemaAdminBackend\/app\\Http\\Kernel.php",
    "relative_file": null,
    "hash": "ad75a661a6f88c476ec8cf63ba2c67396f801f0b",
    "parent": "Illuminate\\Foundation\\Http\\Kernel",
    "modifiers": 0,
    "is_trait": false,
    "is_interface": false,
    "aliases": {
        "HttpKernel": "Illuminate\\Foundation\\Http\\Kernel"
    },
    "errors": [],
    "interfaces": [],
    "traits": [],
    "properties": {
        "middleware": {
            "name": "middleware",
            "line": 16,
            "short_desc": "The application's global HTTP middleware stack.",
            "long_desc": "These middleware are run during every request to your application.",
            "hint": [
                [
                    "array",
                    false
                ]
            ],
            "hint_desc": "",
            "tags": [],
            "modifiers": 2,
            "default": {
                "nodeType": "Expr_Array",
                "items": [
                    {
                        "nodeType": "Expr_ArrayItem",
                        "key": null,
                        "value": {
                            "nodeType": "Expr_ClassConstFetch",
                            "class": {
                                "nodeType": "Name_FullyQualified",
                                "parts": [
                                    "App",
                                    "Http",
                                    "Middleware",
                                    "TrustProxies"
                                ],
                                "attributes": {
                                    "startLine": 17,
                                    "endLine": 17
                                }
                            },
                            "name": "class",
                            "attributes": {
                                "startLine": 17,
                                "endLine": 17
                            }
                        },
                        "byRef": false,
                        "attributes": {
                            "startLine": 17,
                            "endLine": 17
                        }
                    },
                    {
                        "nodeType": "Expr_ArrayItem",
                        "key": null,
                        "value": {
                            "nodeType": "Expr_ClassConstFetch",
                            "class": {
                                "nodeType": "Name_FullyQualified",
                                "parts": [
                                    "App",
                                    "Http",
                                    "Middleware",
                                    "CheckForMaintenanceMode"
                                ],
                                "attributes": {
                                    "startLine": 18,
                                    "endLine": 18
                                }
                            },
                            "name": "class",
                            "attributes": {
                                "startLine": 18,
                                "endLine": 18
                            }
                        },
                        "byRef": false,
                        "attributes": {
                            "startLine": 18,
                            "endLine": 18
                        }
                    },
                    {
                        "nodeType": "Expr_ArrayItem",
                        "key": null,
                        "value": {
                            "nodeType": "Expr_ClassConstFetch",
                            "class": {
                                "nodeType": "Name_FullyQualified",
                                "parts": [
                                    "Illuminate",
                                    "Foundation",
                                    "Http",
                                    "Middleware",
                                    "ValidatePostSize"
                                ],
                                "attributes": {
                                    "startLine": 19,
                                    "endLine": 19
                                }
                            },
                            "name": "class",
                            "attributes": {
                                "startLine": 19,
                                "endLine": 19
                            }
                        },
                        "byRef": false,
                        "attributes": {
                            "startLine": 19,
                            "endLine": 19
                        }
                    },
                    {
                        "nodeType": "Expr_ArrayItem",
                        "key": null,
                        "value": {
                            "nodeType": "Expr_ClassConstFetch",
                            "class": {
                                "nodeType": "Name_FullyQualified",
                                "parts": [
                                    "App",
                                    "Http",
                                    "Middleware",
                                    "TrimStrings"
                                ],
                                "attributes": {
                                    "startLine": 20,
                                    "endLine": 20
                                }
                            },
                            "name": "class",
                            "attributes": {
                                "startLine": 20,
                                "endLine": 20
                            }
                        },
                        "byRef": false,
                        "attributes": {
                            "startLine": 20,
                            "endLine": 20
                        }
                    },
                    {
                        "nodeType": "Expr_ArrayItem",
                        "key": null,
                        "value": {
                            "nodeType": "Expr_ClassConstFetch",
                            "class": {
                                "nodeType": "Name_FullyQualified",
                                "parts": [
                                    "Illuminate",
                                    "Foundation",
                                    "Http",
                                    "Middleware",
                                    "ConvertEmptyStringsToNull"
                                ],
                                "attributes": {
                                    "startLine": 21,
                                    "endLine": 21
                                }
                            },
                            "name": "class",
                            "attributes": {
                                "startLine": 21,
                                "endLine": 21
                            }
                        },
                        "byRef": false,
                        "attributes": {
                            "startLine": 21,
                            "endLine": 21
                        }
                    }
                ],
                "attributes": {
                    "startLine": 16,
                    "endLine": 22,
                    "kind": 2
                }
            },
            "errors": []
        },
        "middlewareGroups": {
            "name": "middlewareGroups",
            "line": 29,
            "short_desc": "The application's route middleware groups.",
            "long_desc": "",
            "hint": [
                [
                    "array",
                    false
                ]
            ],
            "hint_desc": "",
            "tags": [],
            "modifiers": 2,
            "default": {
                "nodeType": "Expr_Array",
                "items": [
                    {
                        "nodeType": "Expr_ArrayItem",
                        "key": {
                            "nodeType": "Scalar_String",
                            "value": "web",
                            "attributes": {
                                "startLine": 30,
                                "endLine": 30,
                                "kind": 1
                            }
                        },
                        "value": {
                            "nodeType": "Expr_Array",
                            "items": [
                                {
                                    "nodeType": "Expr_ArrayItem",
                                    "key": null,
                                    "value": {
                                        "nodeType": "Expr_ClassConstFetch",
                                        "class": {
                                            "nodeType": "Name_FullyQualified",
                                            "parts": [
                                                "App",
                                                "Http",
                                                "Middleware",
                                                "EncryptCookies"
                                            ],
                                            "attributes": {
                                                "startLine": 31,
                                                "endLine": 31
                                            }
                                        },
                                        "name": "class",
                                        "attributes": {
                                            "startLine": 31,
                                            "endLine": 31
                                        }
                                    },
                                    "byRef": false,
                                    "attributes": {
                                        "startLine": 31,
                                        "endLine": 31
                                    }
                                },
                                {
                                    "nodeType": "Expr_ArrayItem",
                                    "key": null,
                                    "value": {
                                        "nodeType": "Expr_ClassConstFetch",
                                        "class": {
                                            "nodeType": "Name_FullyQualified",
                                            "parts": [
                                                "Illuminate",
                                                "Cookie",
                                                "Middleware",
                                                "AddQueuedCookiesToResponse"
                                            ],
                                            "attributes": {
                                                "startLine": 32,
                                                "endLine": 32
                                            }
                                        },
                                        "name": "class",
                                        "attributes": {
                                            "startLine": 32,
                                            "endLine": 32
                                        }
                                    },
                                    "byRef": false,
                                    "attributes": {
                                        "startLine": 32,
                                        "endLine": 32
                                    }
                                },
                                {
                                    "nodeType": "Expr_ArrayItem",
                                    "key": null,
                                    "value": {
                                        "nodeType": "Expr_ClassConstFetch",
                                        "class": {
                                            "nodeType": "Name_FullyQualified",
                                            "parts": [
                                                "Illuminate",
                                                "Session",
                                                "Middleware",
                                                "StartSession"
                                            ],
                                            "attributes": {
                                                "startLine": 33,
                                                "endLine": 33
                                            }
                                        },
                                        "name": "class",
                                        "attributes": {
                                            "startLine": 33,
                                            "endLine": 33
                                        }
                                    },
                                    "byRef": false,
                                    "attributes": {
                                        "startLine": 33,
                                        "endLine": 33
                                    }
                                },
                                {
                                    "nodeType": "Expr_ArrayItem",
                                    "key": null,
                                    "value": {
                                        "nodeType": "Expr_ClassConstFetch",
                                        "class": {
                                            "nodeType": "Name_FullyQualified",
                                            "parts": [
                                                "Illuminate",
                                                "View",
                                                "Middleware",
                                                "ShareErrorsFromSession"
                                            ],
                                            "attributes": {
                                                "startLine": 35,
                                                "comments": [
                                                    {
                                                        "nodeType": "Comment",
                                                        "text": "\/\/ \\Illuminate\\Session\\Middleware\\AuthenticateSession::class,\n",
                                                        "line": 34,
                                                        "filePos": 999
                                                    }
                                                ],
                                                "endLine": 35
                                            }
                                        },
                                        "name": "class",
                                        "attributes": {
                                            "startLine": 35,
                                            "comments": [
                                                {
                                                    "nodeType": "Comment",
                                                    "text": "\/\/ \\Illuminate\\Session\\Middleware\\AuthenticateSession::class,\n",
                                                    "line": 34,
                                                    "filePos": 999
                                                }
                                            ],
                                            "endLine": 35
                                        }
                                    },
                                    "byRef": false,
                                    "attributes": {
                                        "startLine": 35,
                                        "comments": [
                                            {
                                                "nodeType": "Comment",
                                                "text": "\/\/ \\Illuminate\\Session\\Middleware\\AuthenticateSession::class,\n",
                                                "line": 34,
                                                "filePos": 999
                                            }
                                        ],
                                        "endLine": 35
                                    }
                                },
                                {
                                    "nodeType": "Expr_ArrayItem",
                                    "key": null,
                                    "value": {
                                        "nodeType": "Expr_ClassConstFetch",
                                        "class": {
                                            "nodeType": "Name_FullyQualified",
                                            "parts": [
                                                "App",
                                                "Http",
                                                "Middleware",
                                                "VerifyCsrfToken"
                                            ],
                                            "attributes": {
                                                "startLine": 36,
                                                "endLine": 36
                                            }
                                        },
                                        "name": "class",
                                        "attributes": {
                                            "startLine": 36,
                                            "endLine": 36
                                        }
                                    },
                                    "byRef": false,
                                    "attributes": {
                                        "startLine": 36,
                                        "endLine": 36
                                    }
                                },
                                {
                                    "nodeType": "Expr_ArrayItem",
                                    "key": null,
                                    "value": {
                                        "nodeType": "Expr_ClassConstFetch",
                                        "class": {
                                            "nodeType": "Name_FullyQualified",
                                            "parts": [
                                                "Illuminate",
                                                "Routing",
                                                "Middleware",
                                                "SubstituteBindings"
                                            ],
                                            "attributes": {
                                                "startLine": 37,
                                                "endLine": 37
                                            }
                                        },
                                        "name": "class",
                                        "attributes": {
                                            "startLine": 37,
                                            "endLine": 37
                                        }
                                    },
                                    "byRef": false,
                                    "attributes": {
                                        "startLine": 37,
                                        "endLine": 37
                                    }
                                }
                            ],
                            "attributes": {
                                "startLine": 30,
                                "endLine": 38,
                                "kind": 2
                            }
                        },
                        "byRef": false,
                        "attributes": {
                            "startLine": 30,
                            "endLine": 38
                        }
                    },
                    {
                        "nodeType": "Expr_ArrayItem",
                        "key": {
                            "nodeType": "Scalar_String",
                            "value": "api",
                            "attributes": {
                                "startLine": 40,
                                "endLine": 40,
                                "kind": 1
                            }
                        },
                        "value": {
                            "nodeType": "Expr_Array",
                            "items": [
                                {
                                    "nodeType": "Expr_ArrayItem",
                                    "key": null,
                                    "value": {
                                        "nodeType": "Scalar_String",
                                        "value": "throttle:60,1",
                                        "attributes": {
                                            "startLine": 41,
                                            "endLine": 41,
                                            "kind": 1
                                        }
                                    },
                                    "byRef": false,
                                    "attributes": {
                                        "startLine": 41,
                                        "endLine": 41
                                    }
                                },
                                {
                                    "nodeType": "Expr_ArrayItem",
                                    "key": null,
                                    "value": {
                                        "nodeType": "Scalar_String",
                                        "value": "bindings",
                                        "attributes": {
                                            "startLine": 42,
                                            "endLine": 42,
                                            "kind": 1
                                        }
                                    },
                                    "byRef": false,
                                    "attributes": {
                                        "startLine": 42,
                                        "endLine": 42
                                    }
                                }
                            ],
                            "attributes": {
                                "startLine": 40,
                                "endLine": 43,
                                "kind": 2
                            }
                        },
                        "byRef": false,
                        "attributes": {
                            "startLine": 40,
                            "endLine": 43
                        }
                    }
                ],
                "attributes": {
                    "startLine": 29,
                    "endLine": 44,
                    "kind": 2
                }
            },
            "errors": []
        },
        "routeMiddleware": {
            "name": "routeMiddleware",
            "line": 53,
            "short_desc": "The application's route middleware.",
            "long_desc": "These middleware may be assigned to groups or used individually.",
            "hint": [
                [
                    "array",
                    false
                ]
            ],
            "hint_desc": "",
            "tags": [],
            "modifiers": 2,
            "default": {
                "nodeType": "Expr_Array",
                "items": [
                    {
                        "nodeType": "Expr_ArrayItem",
                        "key": {
                            "nodeType": "Scalar_String",
                            "value": "auth",
                            "attributes": {
                                "startLine": 54,
                                "endLine": 54,
                                "kind": 1
                            }
                        },
                        "value": {
                            "nodeType": "Expr_ClassConstFetch",
                            "class": {
                                "nodeType": "Name_FullyQualified",
                                "parts": [
                                    "App",
                                    "Http",
                                    "Middleware",
                                    "Authenticate"
                                ],
                                "attributes": {
                                    "startLine": 54,
                                    "endLine": 54
                                }
                            },
                            "name": "class",
                            "attributes": {
                                "startLine": 54,
                                "endLine": 54
                            }
                        },
                        "byRef": false,
                        "attributes": {
                            "startLine": 54,
                            "endLine": 54
                        }
                    },
                    {
                        "nodeType": "Expr_ArrayItem",
                        "key": {
                            "nodeType": "Scalar_String",
                            "value": "auth.basic",
                            "attributes": {
                                "startLine": 55,
                                "endLine": 55,
                                "kind": 1
                            }
                        },
                        "value": {
                            "nodeType": "Expr_ClassConstFetch",
                            "class": {
                                "nodeType": "Name_FullyQualified",
                                "parts": [
                                    "Illuminate",
                                    "Auth",
                                    "Middleware",
                                    "AuthenticateWithBasicAuth"
                                ],
                                "attributes": {
                                    "startLine": 55,
                                    "endLine": 55
                                }
                            },
                            "name": "class",
                            "attributes": {
                                "startLine": 55,
                                "endLine": 55
                            }
                        },
                        "byRef": false,
                        "attributes": {
                            "startLine": 55,
                            "endLine": 55
                        }
                    },
                    {
                        "nodeType": "Expr_ArrayItem",
                        "key": {
                            "nodeType": "Scalar_String",
                            "value": "bindings",
                            "attributes": {
                                "startLine": 56,
                                "endLine": 56,
                                "kind": 1
                            }
                        },
                        "value": {
                            "nodeType": "Expr_ClassConstFetch",
                            "class": {
                                "nodeType": "Name_FullyQualified",
                                "parts": [
                                    "Illuminate",
                                    "Routing",
                                    "Middleware",
                                    "SubstituteBindings"
                                ],
                                "attributes": {
                                    "startLine": 56,
                                    "endLine": 56
                                }
                            },
                            "name": "class",
                            "attributes": {
                                "startLine": 56,
                                "endLine": 56
                            }
                        },
                        "byRef": false,
                        "attributes": {
                            "startLine": 56,
                            "endLine": 56
                        }
                    },
                    {
                        "nodeType": "Expr_ArrayItem",
                        "key": {
                            "nodeType": "Scalar_String",
                            "value": "cache.headers",
                            "attributes": {
                                "startLine": 57,
                                "endLine": 57,
                                "kind": 1
                            }
                        },
                        "value": {
                            "nodeType": "Expr_ClassConstFetch",
                            "class": {
                                "nodeType": "Name_FullyQualified",
                                "parts": [
                                    "Illuminate",
                                    "Http",
                                    "Middleware",
                                    "SetCacheHeaders"
                                ],
                                "attributes": {
                                    "startLine": 57,
                                    "endLine": 57
                                }
                            },
                            "name": "class",
                            "attributes": {
                                "startLine": 57,
                                "endLine": 57
                            }
                        },
                        "byRef": false,
                        "attributes": {
                            "startLine": 57,
                            "endLine": 57
                        }
                    },
                    {
                        "nodeType": "Expr_ArrayItem",
                        "key": {
                            "nodeType": "Scalar_String",
                            "value": "can",
                            "attributes": {
                                "startLine": 58,
                                "endLine": 58,
                                "kind": 1
                            }
                        },
                        "value": {
                            "nodeType": "Expr_ClassConstFetch",
                            "class": {
                                "nodeType": "Name_FullyQualified",
                                "parts": [
                                    "Illuminate",
                                    "Auth",
                                    "Middleware",
                                    "Authorize"
                                ],
                                "attributes": {
                                    "startLine": 58,
                                    "endLine": 58
                                }
                            },
                            "name": "class",
                            "attributes": {
                                "startLine": 58,
                                "endLine": 58
                            }
                        },
                        "byRef": false,
                        "attributes": {
                            "startLine": 58,
                            "endLine": 58
                        }
                    },
                    {
                        "nodeType": "Expr_ArrayItem",
                        "key": {
                            "nodeType": "Scalar_String",
                            "value": "guest",
                            "attributes": {
                                "startLine": 59,
                                "endLine": 59,
                                "kind": 1
                            }
                        },
                        "value": {
                            "nodeType": "Expr_ClassConstFetch",
                            "class": {
                                "nodeType": "Name_FullyQualified",
                                "parts": [
                                    "App",
                                    "Http",
                                    "Middleware",
                                    "RedirectIfAuthenticated"
                                ],
                                "attributes": {
                                    "startLine": 59,
                                    "endLine": 59
                                }
                            },
                            "name": "class",
                            "attributes": {
                                "startLine": 59,
                                "endLine": 59
                            }
                        },
                        "byRef": false,
                        "attributes": {
                            "startLine": 59,
                            "endLine": 59
                        }
                    },
                    {
                        "nodeType": "Expr_ArrayItem",
                        "key": {
                            "nodeType": "Scalar_String",
                            "value": "password.confirm",
                            "attributes": {
                                "startLine": 60,
                                "endLine": 60,
                                "kind": 1
                            }
                        },
                        "value": {
                            "nodeType": "Expr_ClassConstFetch",
                            "class": {
                                "nodeType": "Name_FullyQualified",
                                "parts": [
                                    "Illuminate",
                                    "Auth",
                                    "Middleware",
                                    "RequirePassword"
                                ],
                                "attributes": {
                                    "startLine": 60,
                                    "endLine": 60
                                }
                            },
                            "name": "class",
                            "attributes": {
                                "startLine": 60,
                                "endLine": 60
                            }
                        },
                        "byRef": false,
                        "attributes": {
                            "startLine": 60,
                            "endLine": 60
                        }
                    },
                    {
                        "nodeType": "Expr_ArrayItem",
                        "key": {
                            "nodeType": "Scalar_String",
                            "value": "signed",
                            "attributes": {
                                "startLine": 61,
                                "endLine": 61,
                                "kind": 1
                            }
                        },
                        "value": {
                            "nodeType": "Expr_ClassConstFetch",
                            "class": {
                                "nodeType": "Name_FullyQualified",
                                "parts": [
                                    "Illuminate",
                                    "Routing",
                                    "Middleware",
                                    "ValidateSignature"
                                ],
                                "attributes": {
                                    "startLine": 61,
                                    "endLine": 61
                                }
                            },
                            "name": "class",
                            "attributes": {
                                "startLine": 61,
                                "endLine": 61
                            }
                        },
                        "byRef": false,
                        "attributes": {
                            "startLine": 61,
                            "endLine": 61
                        }
                    },
                    {
                        "nodeType": "Expr_ArrayItem",
                        "key": {
                            "nodeType": "Scalar_String",
                            "value": "throttle",
                            "attributes": {
                                "startLine": 62,
                                "endLine": 62,
                                "kind": 1
                            }
                        },
                        "value": {
                            "nodeType": "Expr_ClassConstFetch",
                            "class": {
                                "nodeType": "Name_FullyQualified",
                                "parts": [
                                    "Illuminate",
                                    "Routing",
                                    "Middleware",
                                    "ThrottleRequests"
                                ],
                                "attributes": {
                                    "startLine": 62,
                                    "endLine": 62
                                }
                            },
                            "name": "class",
                            "attributes": {
                                "startLine": 62,
                                "endLine": 62
                            }
                        },
                        "byRef": false,
                        "attributes": {
                            "startLine": 62,
                            "endLine": 62
                        }
                    },
                    {
                        "nodeType": "Expr_ArrayItem",
                        "key": {
                            "nodeType": "Scalar_String",
                            "value": "verified",
                            "attributes": {
                                "startLine": 63,
                                "endLine": 63,
                                "kind": 1
                            }
                        },
                        "value": {
                            "nodeType": "Expr_ClassConstFetch",
                            "class": {
                                "nodeType": "Name_FullyQualified",
                                "parts": [
                                    "Illuminate",
                                    "Auth",
                                    "Middleware",
                                    "EnsureEmailIsVerified"
                                ],
                                "attributes": {
                                    "startLine": 63,
                                    "endLine": 63
                                }
                            },
                            "name": "class",
                            "attributes": {
                                "startLine": 63,
                                "endLine": 63
                            }
                        },
                        "byRef": false,
                        "attributes": {
                            "startLine": 63,
                            "endLine": 63
                        }
                    },
                    {
                        "nodeType": "Expr_ArrayItem",
                        "key": {
                            "nodeType": "Scalar_String",
                            "value": "cors",
                            "attributes": {
                                "startLine": 64,
                                "endLine": 64,
                                "kind": 1
                            }
                        },
                        "value": {
                            "nodeType": "Expr_ClassConstFetch",
                            "class": {
                                "nodeType": "Name_FullyQualified",
                                "parts": [
                                    "App",
                                    "Http",
                                    "Middleware",
                                    "Cors"
                                ],
                                "attributes": {
                                    "startLine": 64,
                                    "endLine": 64
                                }
                            },
                            "name": "class",
                            "attributes": {
                                "startLine": 64,
                                "endLine": 64
                            }
                        },
                        "byRef": false,
                        "attributes": {
                            "startLine": 64,
                            "endLine": 64
                        }
                    }
                ],
                "attributes": {
                    "startLine": 53,
                    "endLine": 65,
                    "kind": 2
                }
            },
            "errors": []
        },
        "middlewarePriority": {
            "name": "middlewarePriority",
            "line": 74,
            "short_desc": "The priority-sorted list of middleware.",
            "long_desc": "This forces non-global middleware to always be in the given order.",
            "hint": [
                [
                    "array",
                    false
                ]
            ],
            "hint_desc": "",
            "tags": [],
            "modifiers": 2,
            "default": {
                "nodeType": "Expr_Array",
                "items": [
                    {
                        "nodeType": "Expr_ArrayItem",
                        "key": null,
                        "value": {
                            "nodeType": "Expr_ClassConstFetch",
                            "class": {
                                "nodeType": "Name_FullyQualified",
                                "parts": [
                                    "Illuminate",
                                    "Session",
                                    "Middleware",
                                    "StartSession"
                                ],
                                "attributes": {
                                    "startLine": 75,
                                    "endLine": 75
                                }
                            },
                            "name": "class",
                            "attributes": {
                                "startLine": 75,
                                "endLine": 75
                            }
                        },
                        "byRef": false,
                        "attributes": {
                            "startLine": 75,
                            "endLine": 75
                        }
                    },
                    {
                        "nodeType": "Expr_ArrayItem",
                        "key": null,
                        "value": {
                            "nodeType": "Expr_ClassConstFetch",
                            "class": {
                                "nodeType": "Name_FullyQualified",
                                "parts": [
                                    "Illuminate",
                                    "View",
                                    "Middleware",
                                    "ShareErrorsFromSession"
                                ],
                                "attributes": {
                                    "startLine": 76,
                                    "endLine": 76
                                }
                            },
                            "name": "class",
                            "attributes": {
                                "startLine": 76,
                                "endLine": 76
                            }
                        },
                        "byRef": false,
                        "attributes": {
                            "startLine": 76,
                            "endLine": 76
                        }
                    },
                    {
                        "nodeType": "Expr_ArrayItem",
                        "key": null,
                        "value": {
                            "nodeType": "Expr_ClassConstFetch",
                            "class": {
                                "nodeType": "Name_FullyQualified",
                                "parts": [
                                    "App",
                                    "Http",
                                    "Middleware",
                                    "Authenticate"
                                ],
                                "attributes": {
                                    "startLine": 77,
                                    "endLine": 77
                                }
                            },
                            "name": "class",
                            "attributes": {
                                "startLine": 77,
                                "endLine": 77
                            }
                        },
                        "byRef": false,
                        "attributes": {
                            "startLine": 77,
                            "endLine": 77
                        }
                    },
                    {
                        "nodeType": "Expr_ArrayItem",
                        "key": null,
                        "value": {
                            "nodeType": "Expr_ClassConstFetch",
                            "class": {
                                "nodeType": "Name_FullyQualified",
                                "parts": [
                                    "Illuminate",
                                    "Routing",
                                    "Middleware",
                                    "ThrottleRequests"
                                ],
                                "attributes": {
                                    "startLine": 78,
                                    "endLine": 78
                                }
                            },
                            "name": "class",
                            "attributes": {
                                "startLine": 78,
                                "endLine": 78
                            }
                        },
                        "byRef": false,
                        "attributes": {
                            "startLine": 78,
                            "endLine": 78
                        }
                    },
                    {
                        "nodeType": "Expr_ArrayItem",
                        "key": null,
                        "value": {
                            "nodeType": "Expr_ClassConstFetch",
                            "class": {
                                "nodeType": "Name_FullyQualified",
                                "parts": [
                                    "Illuminate",
                                    "Session",
                                    "Middleware",
                                    "AuthenticateSession"
                                ],
                                "attributes": {
                                    "startLine": 79,
                                    "endLine": 79
                                }
                            },
                            "name": "class",
                            "attributes": {
                                "startLine": 79,
                                "endLine": 79
                            }
                        },
                        "byRef": false,
                        "attributes": {
                            "startLine": 79,
                            "endLine": 79
                        }
                    },
                    {
                        "nodeType": "Expr_ArrayItem",
                        "key": null,
                        "value": {
                            "nodeType": "Expr_ClassConstFetch",
                            "class": {
                                "nodeType": "Name_FullyQualified",
                                "parts": [
                                    "Illuminate",
                                    "Routing",
                                    "Middleware",
                                    "SubstituteBindings"
                                ],
                                "attributes": {
                                    "startLine": 80,
                                    "endLine": 80
                                }
                            },
                            "name": "class",
                            "attributes": {
                                "startLine": 80,
                                "endLine": 80
                            }
                        },
                        "byRef": false,
                        "attributes": {
                            "startLine": 80,
                            "endLine": 80
                        }
                    },
                    {
                        "nodeType": "Expr_ArrayItem",
                        "key": null,
                        "value": {
                            "nodeType": "Expr_ClassConstFetch",
                            "class": {
                                "nodeType": "Name_FullyQualified",
                                "parts": [
                                    "Illuminate",
                                    "Auth",
                                    "Middleware",
                                    "Authorize"
                                ],
                                "attributes": {
                                    "startLine": 81,
                                    "endLine": 81
                                }
                            },
                            "name": "class",
                            "attributes": {
                                "startLine": 81,
                                "endLine": 81
                            }
                        },
                        "byRef": false,
                        "attributes": {
                            "startLine": 81,
                            "endLine": 81
                        }
                    }
                ],
                "attributes": {
                    "startLine": 74,
                    "endLine": 82,
                    "kind": 2
                }
            },
            "errors": []
        }
    },
    "methods": [],
    "constants": []
}