{
    "name": "App\\Http\\Controllers\\Auth\\RegisterController",
    "line": 11,
    "short_desc": "",
    "long_desc": "",
    "hint": null,
    "tags": [],
    "namespace": "App\\Http\\Controllers\\Auth",
    "file": "C:\\laragon\\www\\cinemaProject\\CinemaAdminBackend\/app\\Http\\Controllers\\Auth\\RegisterController.php",
    "relative_file": null,
    "hash": "000268e223dc242a47cfc8da423eb1ea5392ebfd",
    "parent": "App\\Http\\Controllers\\Controller",
    "modifiers": 0,
    "is_trait": false,
    "is_interface": false,
    "aliases": {
        "Controller": "App\\Http\\Controllers\\Controller",
        "User": "App\\User",
        "RegistersUsers": "Illuminate\\Foundation\\Auth\\RegistersUsers",
        "Hash": "Illuminate\\Support\\Facades\\Hash",
        "Validator": "Illuminate\\Support\\Facades\\Validator"
    },
    "errors": [],
    "interfaces": [],
    "traits": {
        "Illuminate\\Foundation\\Auth\\RegistersUsers": "Illuminate\\Foundation\\Auth\\RegistersUsers"
    },
    "properties": {
        "redirectTo": {
            "name": "redirectTo",
            "line": 31,
            "short_desc": "Where to redirect users after registration.",
            "long_desc": "",
            "hint": [
                [
                    "string",
                    false
                ]
            ],
            "hint_desc": "",
            "tags": [],
            "modifiers": 2,
            "default": {
                "nodeType": "Scalar_String",
                "value": "\/home",
                "attributes": {
                    "startLine": 31,
                    "endLine": 31,
                    "kind": 1
                }
            },
            "errors": []
        }
    },
    "methods": {
        "__construct": {
            "name": "__construct",
            "line": 38,
            "short_desc": "Create a new controller instance.",
            "long_desc": "",
            "hint": [
                [
                    "void",
                    false
                ]
            ],
            "hint_desc": "",
            "tags": [],
            "modifiers": 1,
            "is_by_ref": "",
            "exceptions": [],
            "errors": [],
            "parameters": []
        },
        "validator": {
            "name": "validator",
            "line": 49,
            "short_desc": "Get a validator for an incoming registration request.",
            "long_desc": "",
            "hint": [
                [
                    "\\Illuminate\\Contracts\\Validation\\Validator",
                    false
                ]
            ],
            "hint_desc": "",
            "tags": [],
            "modifiers": 2,
            "is_by_ref": "",
            "exceptions": [],
            "errors": [],
            "parameters": {
                "data": {
                    "name": "data",
                    "line": 49,
                    "short_desc": "",
                    "long_desc": null,
                    "hint": [
                        [
                            "array",
                            false
                        ]
                    ],
                    "tags": [],
                    "modifiers": "array",
                    "default": null,
                    "variadic": false,
                    "is_by_ref": false
                }
            }
        },
        "create": {
            "name": "create",
            "line": 64,
            "short_desc": "Create a new user instance after a valid registration.",
            "long_desc": "",
            "hint": [
                [
                    "\\App\\User",
                    false
                ]
            ],
            "hint_desc": "",
            "tags": [],
            "modifiers": 2,
            "is_by_ref": "",
            "exceptions": [],
            "errors": [],
            "parameters": {
                "data": {
                    "name": "data",
                    "line": 64,
                    "short_desc": "",
                    "long_desc": null,
                    "hint": [
                        [
                            "array",
                            false
                        ]
                    ],
                    "tags": [],
                    "modifiers": "array",
                    "default": null,
                    "variadic": false,
                    "is_by_ref": false
                }
            }
        }
    },
    "constants": []
}