{
    "name": "App\\Http\\Controllers\\AdminController",
    "line": 7,
    "short_desc": "",
    "long_desc": "",
    "hint": null,
    "tags": [],
    "namespace": "App\\Http\\Controllers",
    "file": "C:\\laragon\\www\\cinemaProject\\CinemaAdminBackend\/app\\Http\\Controllers\\AdminController.php",
    "relative_file": null,
    "hash": "9555ff92871347cca25ee47fa58255ae2dfcb4ec",
    "parent": "App\\Http\\Controllers\\Controller",
    "modifiers": 0,
    "is_trait": false,
    "is_interface": false,
    "aliases": {
        "Request": "Illuminate\\Http\\Request"
    },
    "errors": [],
    "interfaces": [],
    "traits": [],
    "properties": [],
    "methods": {
        "index": {
            "name": "index",
            "line": 9,
            "short_desc": "",
            "long_desc": "",
            "hint": null,
            "hint_desc": null,
            "tags": [],
            "modifiers": 1,
            "is_by_ref": "",
            "exceptions": [],
            "errors": [],
            "parameters": []
        }
    },
    "constants": []
}