{
    "name": "App\\Ticket",
    "line": 7,
    "short_desc": "",
    "long_desc": "",
    "hint": null,
    "tags": [],
    "namespace": "App",
    "file": "C:\\laragon\\www\\cinemaProject\\CinemaAdminBackend\/app\\Ticket.php",
    "relative_file": null,
    "hash": "5f728272a9e316f8903550cb6d02fd6b445c4e6e",
    "parent": "Illuminate\\Database\\Eloquent\\Model",
    "modifiers": 0,
    "is_trait": false,
    "is_interface": false,
    "aliases": {
        "Model": "Illuminate\\Database\\Eloquent\\Model"
    },
    "errors": [],
    "interfaces": [],
    "traits": [],
    "properties": {
        "fillable": {
            "name": "fillable",
            "line": 9,
            "short_desc": "",
            "long_desc": "",
            "hint": null,
            "hint_desc": null,
            "tags": [],
            "modifiers": 2,
            "default": {
                "nodeType": "Expr_Array",
                "items": [
                    {
                        "nodeType": "Expr_ArrayItem",
                        "key": null,
                        "value": {
                            "nodeType": "Scalar_String",
                            "value": "price",
                            "attributes": {
                                "startLine": 10,
                                "endLine": 10,
                                "kind": 1
                            }
                        },
                        "byRef": false,
                        "attributes": {
                            "startLine": 10,
                            "endLine": 10
                        }
                    },
                    {
                        "nodeType": "Expr_ArrayItem",
                        "key": null,
                        "value": {
                            "nodeType": "Scalar_String",
                            "value": "discount",
                            "attributes": {
                                "startLine": 11,
                                "endLine": 11,
                                "kind": 1
                            }
                        },
                        "byRef": false,
                        "attributes": {
                            "startLine": 11,
                            "endLine": 11
                        }
                    },
                    {
                        "nodeType": "Expr_ArrayItem",
                        "key": null,
                        "value": {
                            "nodeType": "Scalar_String",
                            "value": "total",
                            "attributes": {
                                "startLine": 12,
                                "endLine": 12,
                                "kind": 1
                            }
                        },
                        "byRef": false,
                        "attributes": {
                            "startLine": 12,
                            "endLine": 12
                        }
                    },
                    {
                        "nodeType": "Expr_ArrayItem",
                        "key": null,
                        "value": {
                            "nodeType": "Scalar_String",
                            "value": "movie_time_id",
                            "attributes": {
                                "startLine": 13,
                                "endLine": 13,
                                "kind": 1
                            }
                        },
                        "byRef": false,
                        "attributes": {
                            "startLine": 13,
                            "endLine": 13
                        }
                    },
                    {
                        "nodeType": "Expr_ArrayItem",
                        "key": null,
                        "value": {
                            "nodeType": "Scalar_String",
                            "value": "employee_name",
                            "attributes": {
                                "startLine": 14,
                                "endLine": 14,
                                "kind": 1
                            }
                        },
                        "byRef": false,
                        "attributes": {
                            "startLine": 14,
                            "endLine": 14
                        }
                    },
                    {
                        "nodeType": "Expr_ArrayItem",
                        "key": null,
                        "value": {
                            "nodeType": "Scalar_String",
                            "value": "print_time",
                            "attributes": {
                                "startLine": 15,
                                "endLine": 15,
                                "kind": 1
                            }
                        },
                        "byRef": false,
                        "attributes": {
                            "startLine": 15,
                            "endLine": 15
                        }
                    }
                ],
                "attributes": {
                    "startLine": 9,
                    "endLine": 16,
                    "kind": 2
                }
            },
            "errors": []
        }
    },
    "methods": {
        "movieTime": {
            "name": "movieTime",
            "line": 18,
            "short_desc": "",
            "long_desc": "",
            "hint": null,
            "hint_desc": null,
            "tags": [],
            "modifiers": 1,
            "is_by_ref": "",
            "exceptions": [],
            "errors": [],
            "parameters": []
        }
    },
    "constants": []
}