{
    "name": "App\\Http\\Controllers\\RoomController",
    "line": 9,
    "short_desc": "",
    "long_desc": "",
    "hint": null,
    "tags": [],
    "namespace": "App\\Http\\Controllers",
    "file": "C:\\laragon\\www\\cinemaProject\\CinemaAdminBackend\/app\\Http\\Controllers\\RoomController.php",
    "relative_file": null,
    "hash": "364fab0fdb24dd134ee01f3dbdc15c208ae349f3",
    "parent": "App\\Http\\Controllers\\Controller",
    "modifiers": 0,
    "is_trait": false,
    "is_interface": false,
    "aliases": {
        "Room": "App\\Room",
        "Request": "Illuminate\\Http\\Request",
        "Search": "Spatie\\Searchable\\Search"
    },
    "errors": [],
    "interfaces": [],
    "traits": [],
    "properties": [],
    "methods": {
        "index": {
            "name": "index",
            "line": 16,
            "short_desc": "Display a listing of the resource.",
            "long_desc": "",
            "hint": [
                [
                    "\\Illuminate\\Http\\Response",
                    false
                ]
            ],
            "hint_desc": "",
            "tags": [],
            "modifiers": 1,
            "is_by_ref": "",
            "exceptions": [],
            "errors": [],
            "parameters": {
                "request": {
                    "name": "request",
                    "line": 16,
                    "short_desc": null,
                    "long_desc": null,
                    "hint": [
                        [
                            "\\Illuminate\\Http\\Request",
                            false
                        ]
                    ],
                    "tags": [],
                    "modifiers": {
                        "nodeType": "Name_FullyQualified",
                        "parts": [
                            "Illuminate",
                            "Http",
                            "Request"
                        ],
                        "attributes": {
                            "startLine": 16,
                            "endLine": 16
                        }
                    },
                    "default": null,
                    "variadic": false,
                    "is_by_ref": false
                }
            }
        },
        "indexView": {
            "name": "indexView",
            "line": 32,
            "short_desc": "",
            "long_desc": "",
            "hint": null,
            "hint_desc": null,
            "tags": [],
            "modifiers": 1,
            "is_by_ref": "",
            "exceptions": [],
            "errors": [],
            "parameters": []
        },
        "create": {
            "name": "create",
            "line": 42,
            "short_desc": "Show the form for creating a new resource.",
            "long_desc": "",
            "hint": [
                [
                    "\\Illuminate\\Http\\Response",
                    false
                ]
            ],
            "hint_desc": "",
            "tags": [],
            "modifiers": 1,
            "is_by_ref": "",
            "exceptions": [],
            "errors": [],
            "parameters": []
        },
        "store": {
            "name": "store",
            "line": 53,
            "short_desc": "Store a newly created resource in storage.",
            "long_desc": "",
            "hint": [
                [
                    "\\Illuminate\\Http\\Response",
                    false
                ]
            ],
            "hint_desc": "",
            "tags": [],
            "modifiers": 1,
            "is_by_ref": "",
            "exceptions": [],
            "errors": [],
            "parameters": {
                "request": {
                    "name": "request",
                    "line": 53,
                    "short_desc": "",
                    "long_desc": null,
                    "hint": [
                        [
                            "\\Illuminate\\Http\\Request",
                            false
                        ]
                    ],
                    "tags": [],
                    "modifiers": {
                        "nodeType": "Name_FullyQualified",
                        "parts": [
                            "Illuminate",
                            "Http",
                            "Request"
                        ],
                        "attributes": {
                            "startLine": 53,
                            "endLine": 53
                        }
                    },
                    "default": null,
                    "variadic": false,
                    "is_by_ref": false
                }
            }
        },
        "show": {
            "name": "show",
            "line": 77,
            "short_desc": "Display the specified resource.",
            "long_desc": "",
            "hint": [
                [
                    "\\Illuminate\\Http\\Response",
                    false
                ]
            ],
            "hint_desc": "",
            "tags": [],
            "modifiers": 1,
            "is_by_ref": "",
            "exceptions": [],
            "errors": [
                "The \"room\" @param tag variable name is wrong (should be \"id\")"
            ],
            "parameters": {
                "id": {
                    "name": "id",
                    "line": 77,
                    "short_desc": null,
                    "long_desc": null,
                    "hint": null,
                    "tags": [],
                    "modifiers": null,
                    "default": null,
                    "variadic": false,
                    "is_by_ref": false
                }
            }
        },
        "edit": {
            "name": "edit",
            "line": 100,
            "short_desc": "Show the form for editing the specified resource.",
            "long_desc": "",
            "hint": [
                [
                    "\\Illuminate\\Http\\Response",
                    false
                ]
            ],
            "hint_desc": "",
            "tags": [],
            "modifiers": 1,
            "is_by_ref": "",
            "exceptions": [],
            "errors": [],
            "parameters": {
                "room": {
                    "name": "room",
                    "line": 100,
                    "short_desc": "",
                    "long_desc": null,
                    "hint": [
                        [
                            "\\App\\Room",
                            false
                        ]
                    ],
                    "tags": [],
                    "modifiers": {
                        "nodeType": "Name_FullyQualified",
                        "parts": [
                            "App",
                            "Room"
                        ],
                        "attributes": {
                            "startLine": 100,
                            "endLine": 100
                        }
                    },
                    "default": null,
                    "variadic": false,
                    "is_by_ref": false
                }
            }
        },
        "update": {
            "name": "update",
            "line": 112,
            "short_desc": "Update the specified resource in storage.",
            "long_desc": "",
            "hint": [
                [
                    "\\Illuminate\\Http\\Response",
                    false
                ]
            ],
            "hint_desc": "",
            "tags": [],
            "modifiers": 1,
            "is_by_ref": "",
            "exceptions": [],
            "errors": [
                "The \"room\" @param tag variable name is wrong (should be \"id\")"
            ],
            "parameters": {
                "request": {
                    "name": "request",
                    "line": 112,
                    "short_desc": null,
                    "long_desc": null,
                    "hint": [
                        [
                            "\\Illuminate\\Http\\Request",
                            false
                        ]
                    ],
                    "tags": [],
                    "modifiers": {
                        "nodeType": "Name_FullyQualified",
                        "parts": [
                            "Illuminate",
                            "Http",
                            "Request"
                        ],
                        "attributes": {
                            "startLine": 112,
                            "endLine": 112
                        }
                    },
                    "default": null,
                    "variadic": false,
                    "is_by_ref": false
                },
                "id": {
                    "name": "id",
                    "line": 112,
                    "short_desc": null,
                    "long_desc": null,
                    "hint": null,
                    "tags": [],
                    "modifiers": null,
                    "default": null,
                    "variadic": false,
                    "is_by_ref": false
                }
            }
        },
        "destroy": {
            "name": "destroy",
            "line": 136,
            "short_desc": "Remove the specified resource from storage.",
            "long_desc": "",
            "hint": [
                [
                    "\\Illuminate\\Http\\Response",
                    false
                ]
            ],
            "hint_desc": "",
            "tags": [],
            "modifiers": 1,
            "is_by_ref": "",
            "exceptions": [],
            "errors": [
                "The \"room\" @param tag variable name is wrong (should be \"id\")"
            ],
            "parameters": {
                "id": {
                    "name": "id",
                    "line": 136,
                    "short_desc": null,
                    "long_desc": null,
                    "hint": null,
                    "tags": [],
                    "modifiers": null,
                    "default": null,
                    "variadic": false,
                    "is_by_ref": false
                }
            }
        }
    },
    "constants": []
}