{
    "name": "App\\Http\\Middleware\\Authenticate",
    "line": 7,
    "short_desc": "",
    "long_desc": "",
    "hint": null,
    "tags": [],
    "namespace": "App\\Http\\Middleware",
    "file": "C:\\laragon\\www\\cinemaProject\\CinemaAdminBackend\/app\\Http\\Middleware\\Authenticate.php",
    "relative_file": null,
    "hash": "296d638e7ef4a8c705dd1a28c1f4b5614cb9aa1b",
    "parent": "Illuminate\\Auth\\Middleware\\Authenticate",
    "modifiers": 0,
    "is_trait": false,
    "is_interface": false,
    "aliases": {
        "Middleware": "Illuminate\\Auth\\Middleware\\Authenticate"
    },
    "errors": [],
    "interfaces": [],
    "traits": [],
    "properties": [],
    "methods": {
        "redirectTo": {
            "name": "redirectTo",
            "line": 15,
            "short_desc": "Get the path the user should be redirected to when they are not authenticated.",
            "long_desc": "",
            "hint": [
                [
                    "string",
                    false
                ]
            ],
            "hint_desc": "",
            "tags": [],
            "modifiers": 2,
            "is_by_ref": "",
            "exceptions": [],
            "errors": [],
            "parameters": {
                "request": {
                    "name": "request",
                    "line": 15,
                    "short_desc": "",
                    "long_desc": null,
                    "hint": [
                        [
                            "\\Illuminate\\Http\\Request",
                            false
                        ]
                    ],
                    "tags": [],
                    "modifiers": null,
                    "default": null,
                    "variadic": false,
                    "is_by_ref": false
                }
            }
        }
    },
    "constants": []
}